<?xml version="1.0" encoding="utf-8" standalone="no"?>
<!DOCTYPE svg PUBLIC "-//W3C//DTD SVG 1.1//EN"
  "http://www.w3.org/Graphics/SVG/1.1/DTD/svg11.dtd">
<svg xmlns:xlink="http://www.w3.org/1999/xlink" width="460.8pt" height="345.6pt" viewBox="0 0 460.8 345.6" xmlns="http://www.w3.org/2000/svg" version="1.1">
 <metadata>
  <rdf:RDF xmlns:dc="http://purl.org/dc/elements/1.1/" xmlns:cc="http://creativecommons.org/ns#" xmlns:rdf="http://www.w3.org/1999/02/22-rdf-syntax-ns#">
   <cc:Work>
    <dc:type rdf:resource="http://purl.org/dc/dcmitype/StillImage"/>
    <dc:date>2022-11-27T15:42:16.509001</dc:date>
    <dc:format>image/svg+xml</dc:format>
    <dc:creator>
     <cc:Agent>
      <dc:title>Matplotlib v3.6.0, https://matplotlib.org/</dc:title>
     </cc:Agent>
    </dc:creator>
   </cc:Work>
  </rdf:RDF>
 </metadata>
 <defs>
  <style type="text/css">*{stroke-linejoin: round; stroke-linecap: butt}</style>
 </defs>
 <g id="figure_1">
  <g id="patch_1">
   <path d="M 0 345.6 
L 460.8 345.6 
L 460.8 0 
L 0 0 
z
" style="fill: #ffffff"/>
  </g>
  <g id="axes_1">
   <g id="patch_2">
    <path d="M 61.23624 302.019855 
L 448.92 302.019855 
L 448.92 27.012395 
L 61.23624 27.012395 
z
" style="fill: #ffffff"/>
   </g>
   <g id="matplotlib.axis_1">
    <g id="xtick_1">
     <g id="line2d_1">
      <path d="M 78.849418 302.019855 
L 78.849418 27.012395 
" clip-path="url(#pad3eedb96e)" style="fill: none; stroke: #b0b0b0; stroke-width: 0.8; stroke-linecap: square"/>
     </g>
     <g id="line2d_2">
      <defs>
       <path id="m89c4e7b0e3" d="M 0 0 
L 0 3.5 
" style="stroke: #000000; stroke-width: 0.8"/>
      </defs>
      <g>
       <use xlink:href="#m89c4e7b0e3" x="78.849418" y="302.019855" style="stroke: #000000; stroke-width: 0.8"/>
      </g>
     </g>
     <g id="text_1">
      <!-- $\mathdefault{0.00}$ -->
      <g transform="translate(69.108147 316.630201) scale(0.11 -0.11)">
       <defs>
        <path id="CMR17-30" d="M 2688 2025 
C 2688 2416 2682 3080 2413 3591 
C 2176 4039 1798 4198 1466 4198 
C 1158 4198 768 4058 525 3597 
C 269 3118 243 2524 243 2025 
C 243 1661 250 1106 448 619 
C 723 -39 1216 -128 1466 -128 
C 1760 -128 2208 -7 2470 600 
C 2662 1042 2688 1559 2688 2025 
z
M 1466 -26 
C 1056 -26 813 325 723 812 
C 653 1188 653 1738 653 2096 
C 653 2588 653 2997 736 3387 
C 858 3929 1216 4096 1466 4096 
C 1728 4096 2067 3923 2189 3400 
C 2272 3036 2278 2607 2278 2096 
C 2278 1680 2278 1169 2202 792 
C 2067 95 1690 -26 1466 -26 
z
" transform="scale(0.015625)"/>
        <path id="CMMI12-3a" d="M 1178 307 
C 1178 492 1024 619 870 619 
C 685 619 557 466 557 313 
C 557 128 710 0 864 0 
C 1050 0 1178 153 1178 307 
z
" transform="scale(0.015625)"/>
       </defs>
       <use xlink:href="#CMR17-30" transform="scale(0.996264)"/>
       <use xlink:href="#CMMI12-3a" transform="translate(45.690477 0) scale(0.996264)"/>
       <use xlink:href="#CMR17-30" transform="translate(72.787654 0) scale(0.996264)"/>
       <use xlink:href="#CMR17-30" transform="translate(118.478131 0) scale(0.996264)"/>
      </g>
     </g>
    </g>
    <g id="xtick_2">
     <g id="line2d_3">
      <path d="M 122.905492 302.019855 
L 122.905492 27.012395 
" clip-path="url(#pad3eedb96e)" style="fill: none; stroke: #b0b0b0; stroke-width: 0.8; stroke-linecap: square"/>
     </g>
     <g id="line2d_4">
      <g>
       <use xlink:href="#m89c4e7b0e3" x="122.905492" y="302.019855" style="stroke: #000000; stroke-width: 0.8"/>
      </g>
     </g>
     <g id="text_2">
      <!-- $\mathdefault{0.25}$ -->
      <g transform="translate(113.164221 316.630201) scale(0.11 -0.11)">
       <defs>
        <path id="CMR17-32" d="M 2669 989 
L 2554 989 
C 2490 536 2438 459 2413 420 
C 2381 369 1920 369 1830 369 
L 602 369 
C 832 619 1280 1072 1824 1597 
C 2214 1967 2669 2402 2669 3035 
C 2669 3790 2067 4224 1395 4224 
C 691 4224 262 3604 262 3030 
C 262 2780 448 2748 525 2748 
C 589 2748 781 2787 781 3010 
C 781 3207 614 3264 525 3264 
C 486 3264 448 3258 422 3245 
C 544 3790 915 4058 1306 4058 
C 1862 4058 2227 3617 2227 3035 
C 2227 2479 1901 2000 1536 1584 
L 262 146 
L 262 0 
L 2515 0 
L 2669 989 
z
" transform="scale(0.015625)"/>
        <path id="CMR17-35" d="M 730 3692 
C 794 3666 1056 3584 1325 3584 
C 1920 3584 2246 3911 2432 4100 
C 2432 4157 2432 4192 2394 4192 
C 2387 4192 2374 4192 2323 4163 
C 2099 4058 1837 3973 1517 3973 
C 1325 3973 1037 3999 723 4139 
C 653 4171 640 4171 634 4171 
C 602 4171 595 4164 595 4037 
L 595 2203 
C 595 2089 595 2057 659 2057 
C 691 2057 704 2070 736 2114 
C 941 2401 1222 2522 1542 2522 
C 1766 2522 2246 2382 2246 1289 
C 2246 1085 2246 715 2054 421 
C 1894 159 1645 25 1370 25 
C 947 25 518 320 403 814 
C 429 807 480 795 506 795 
C 589 795 749 840 749 1038 
C 749 1210 627 1280 506 1280 
C 358 1280 262 1190 262 1011 
C 262 454 704 -128 1382 -128 
C 2042 -128 2669 440 2669 1264 
C 2669 2030 2170 2624 1549 2624 
C 1222 2624 947 2503 730 2274 
L 730 3692 
z
" transform="scale(0.015625)"/>
       </defs>
       <use xlink:href="#CMR17-30" transform="scale(0.996264)"/>
       <use xlink:href="#CMMI12-3a" transform="translate(45.690477 0) scale(0.996264)"/>
       <use xlink:href="#CMR17-32" transform="translate(72.787654 0) scale(0.996264)"/>
       <use xlink:href="#CMR17-35" transform="translate(118.478131 0) scale(0.996264)"/>
      </g>
     </g>
    </g>
    <g id="xtick_3">
     <g id="line2d_5">
      <path d="M 166.961566 302.019855 
L 166.961566 27.012395 
" clip-path="url(#pad3eedb96e)" style="fill: none; stroke: #b0b0b0; stroke-width: 0.8; stroke-linecap: square"/>
     </g>
     <g id="line2d_6">
      <g>
       <use xlink:href="#m89c4e7b0e3" x="166.961566" y="302.019855" style="stroke: #000000; stroke-width: 0.8"/>
      </g>
     </g>
     <g id="text_3">
      <!-- $\mathdefault{0.50}$ -->
      <g transform="translate(157.220295 316.630201) scale(0.11 -0.11)">
       <use xlink:href="#CMR17-30" transform="scale(0.996264)"/>
       <use xlink:href="#CMMI12-3a" transform="translate(45.690477 0) scale(0.996264)"/>
       <use xlink:href="#CMR17-35" transform="translate(72.787654 0) scale(0.996264)"/>
       <use xlink:href="#CMR17-30" transform="translate(118.478131 0) scale(0.996264)"/>
      </g>
     </g>
    </g>
    <g id="xtick_4">
     <g id="line2d_7">
      <path d="M 211.017641 302.019855 
L 211.017641 27.012395 
" clip-path="url(#pad3eedb96e)" style="fill: none; stroke: #b0b0b0; stroke-width: 0.8; stroke-linecap: square"/>
     </g>
     <g id="line2d_8">
      <g>
       <use xlink:href="#m89c4e7b0e3" x="211.017641" y="302.019855" style="stroke: #000000; stroke-width: 0.8"/>
      </g>
     </g>
     <g id="text_4">
      <!-- $\mathdefault{0.75}$ -->
      <g transform="translate(201.276369 316.630201) scale(0.11 -0.11)">
       <defs>
        <path id="CMR17-37" d="M 2886 3941 
L 2886 4081 
L 1382 4081 
C 634 4081 621 4165 595 4288 
L 480 4288 
L 294 3094 
L 410 3094 
C 429 3215 474 3540 550 3661 
C 589 3712 1062 3712 1171 3712 
L 2579 3712 
L 1869 2661 
C 1395 1954 1069 999 1069 165 
C 1069 89 1069 -128 1299 -128 
C 1530 -128 1530 89 1530 171 
L 1530 465 
C 1530 1508 1709 2196 2003 2636 
L 2886 3941 
z
" transform="scale(0.015625)"/>
       </defs>
       <use xlink:href="#CMR17-30" transform="scale(0.996264)"/>
       <use xlink:href="#CMMI12-3a" transform="translate(45.690477 0) scale(0.996264)"/>
       <use xlink:href="#CMR17-37" transform="translate(72.787654 0) scale(0.996264)"/>
       <use xlink:href="#CMR17-35" transform="translate(118.478131 0) scale(0.996264)"/>
      </g>
     </g>
    </g>
    <g id="xtick_5">
     <g id="line2d_9">
      <path d="M 255.073715 302.019855 
L 255.073715 27.012395 
" clip-path="url(#pad3eedb96e)" style="fill: none; stroke: #b0b0b0; stroke-width: 0.8; stroke-linecap: square"/>
     </g>
     <g id="line2d_10">
      <g>
       <use xlink:href="#m89c4e7b0e3" x="255.073715" y="302.019855" style="stroke: #000000; stroke-width: 0.8"/>
      </g>
     </g>
     <g id="text_5">
      <!-- $\mathdefault{1.00}$ -->
      <g transform="translate(245.332443 316.630201) scale(0.11 -0.11)">
       <defs>
        <path id="CMR17-31" d="M 1702 4058 
C 1702 4192 1696 4192 1606 4192 
C 1357 3916 979 3827 621 3827 
C 602 3827 570 3827 563 3808 
C 557 3795 557 3782 557 3648 
C 755 3648 1088 3686 1344 3839 
L 1344 461 
C 1344 236 1331 160 781 160 
L 589 160 
L 589 0 
C 896 0 1216 0 1523 0 
C 1830 0 2150 0 2458 0 
L 2458 160 
L 2266 160 
C 1715 160 1702 230 1702 458 
L 1702 4058 
z
" transform="scale(0.015625)"/>
       </defs>
       <use xlink:href="#CMR17-31" transform="scale(0.996264)"/>
       <use xlink:href="#CMMI12-3a" transform="translate(45.690477 0) scale(0.996264)"/>
       <use xlink:href="#CMR17-30" transform="translate(72.787654 0) scale(0.996264)"/>
       <use xlink:href="#CMR17-30" transform="translate(118.478131 0) scale(0.996264)"/>
      </g>
     </g>
    </g>
    <g id="xtick_6">
     <g id="line2d_11">
      <path d="M 299.129789 302.019855 
L 299.129789 27.012395 
" clip-path="url(#pad3eedb96e)" style="fill: none; stroke: #b0b0b0; stroke-width: 0.8; stroke-linecap: square"/>
     </g>
     <g id="line2d_12">
      <g>
       <use xlink:href="#m89c4e7b0e3" x="299.129789" y="302.019855" style="stroke: #000000; stroke-width: 0.8"/>
      </g>
     </g>
     <g id="text_6">
      <!-- $\mathdefault{1.25}$ -->
      <g transform="translate(289.388517 316.630201) scale(0.11 -0.11)">
       <use xlink:href="#CMR17-31" transform="scale(0.996264)"/>
       <use xlink:href="#CMMI12-3a" transform="translate(45.690477 0) scale(0.996264)"/>
       <use xlink:href="#CMR17-32" transform="translate(72.787654 0) scale(0.996264)"/>
       <use xlink:href="#CMR17-35" transform="translate(118.478131 0) scale(0.996264)"/>
      </g>
     </g>
    </g>
    <g id="xtick_7">
     <g id="line2d_13">
      <path d="M 343.185863 302.019855 
L 343.185863 27.012395 
" clip-path="url(#pad3eedb96e)" style="fill: none; stroke: #b0b0b0; stroke-width: 0.8; stroke-linecap: square"/>
     </g>
     <g id="line2d_14">
      <g>
       <use xlink:href="#m89c4e7b0e3" x="343.185863" y="302.019855" style="stroke: #000000; stroke-width: 0.8"/>
      </g>
     </g>
     <g id="text_7">
      <!-- $\mathdefault{1.50}$ -->
      <g transform="translate(333.444591 316.630201) scale(0.11 -0.11)">
       <use xlink:href="#CMR17-31" transform="scale(0.996264)"/>
       <use xlink:href="#CMMI12-3a" transform="translate(45.690477 0) scale(0.996264)"/>
       <use xlink:href="#CMR17-35" transform="translate(72.787654 0) scale(0.996264)"/>
       <use xlink:href="#CMR17-30" transform="translate(118.478131 0) scale(0.996264)"/>
      </g>
     </g>
    </g>
    <g id="xtick_8">
     <g id="line2d_15">
      <path d="M 387.241937 302.019855 
L 387.241937 27.012395 
" clip-path="url(#pad3eedb96e)" style="fill: none; stroke: #b0b0b0; stroke-width: 0.8; stroke-linecap: square"/>
     </g>
     <g id="line2d_16">
      <g>
       <use xlink:href="#m89c4e7b0e3" x="387.241937" y="302.019855" style="stroke: #000000; stroke-width: 0.8"/>
      </g>
     </g>
     <g id="text_8">
      <!-- $\mathdefault{1.75}$ -->
      <g transform="translate(377.500665 316.630201) scale(0.11 -0.11)">
       <use xlink:href="#CMR17-31" transform="scale(0.996264)"/>
       <use xlink:href="#CMMI12-3a" transform="translate(45.690477 0) scale(0.996264)"/>
       <use xlink:href="#CMR17-37" transform="translate(72.787654 0) scale(0.996264)"/>
       <use xlink:href="#CMR17-35" transform="translate(118.478131 0) scale(0.996264)"/>
      </g>
     </g>
    </g>
    <g id="xtick_9">
     <g id="line2d_17">
      <path d="M 431.298011 302.019855 
L 431.298011 27.012395 
" clip-path="url(#pad3eedb96e)" style="fill: none; stroke: #b0b0b0; stroke-width: 0.8; stroke-linecap: square"/>
     </g>
     <g id="line2d_18">
      <g>
       <use xlink:href="#m89c4e7b0e3" x="431.298011" y="302.019855" style="stroke: #000000; stroke-width: 0.8"/>
      </g>
     </g>
     <g id="text_9">
      <!-- $\mathdefault{2.00}$ -->
      <g transform="translate(421.556739 316.630201) scale(0.11 -0.11)">
       <use xlink:href="#CMR17-32" transform="scale(0.996264)"/>
       <use xlink:href="#CMMI12-3a" transform="translate(45.690477 0) scale(0.996264)"/>
       <use xlink:href="#CMR17-30" transform="translate(72.787654 0) scale(0.996264)"/>
       <use xlink:href="#CMR17-30" transform="translate(118.478131 0) scale(0.996264)"/>
      </g>
     </g>
    </g>
    <g id="text_10">
     <!-- Frecuencia [Hz] -->
     <g transform="translate(219.636639 330.980274) scale(0.11 -0.11)">
      <defs>
       <path id="CMSS17-46" d="M 2918 1984 
L 2918 2373 
L 1101 2373 
L 1101 3968 
L 1882 3968 
C 1958 3968 2035 3968 2112 3968 
L 3168 3968 
L 3168 4375 
L 563 4375 
L 563 -32 
L 1101 -32 
L 1101 1984 
L 2918 1984 
z
" transform="scale(0.015625)"/>
       <path id="CMSS17-72" d="M 954 1363 
C 954 1965 1395 2368 1958 2368 
L 1958 2789 
C 1549 2789 1165 2585 934 2253 
L 934 2758 
L 480 2758 
L 480 0 
L 954 0 
L 954 1363 
z
" transform="scale(0.015625)"/>
       <path id="CMSS17-65" d="M 2502 1377 
C 2502 1590 2490 2003 2285 2345 
C 2061 2713 1696 2816 1421 2816 
C 755 2816 192 2188 192 1375 
C 192 582 774 -64 1510 -64 
C 1798 -64 2150 19 2470 248 
C 2470 274 2458 414 2451 420 
C 2451 433 2432 630 2432 656 
C 2125 407 1773 325 1517 325 
C 1107 325 666 667 646 1377 
L 2502 1377 
z
M 698 1728 
C 781 2084 1062 2421 1421 2421 
C 1517 2421 1965 2421 2080 1728 
L 698 1728 
z
" transform="scale(0.015625)"/>
       <path id="CMSS17-63" d="M 2464 2541 
C 2464 2585 2170 2714 2093 2739 
C 1882 2816 1613 2816 1542 2816 
C 710 2816 211 2093 211 1363 
C 211 595 768 -64 1517 -64 
C 1946 -64 2253 76 2502 242 
L 2464 664 
C 2189 453 1869 337 1523 337 
C 1024 337 698 774 698 1369 
C 698 1831 909 2414 1549 2414 
C 1901 2414 2099 2343 2394 2145 
L 2464 2541 
z
" transform="scale(0.015625)"/>
       <path id="CMSS17-75" d="M 2618 2739 
L 2131 2739 
L 2131 972 
C 2131 498 1786 306 1421 306 
C 998 306 960 447 960 709 
L 960 2739 
L 474 2739 
L 474 678 
C 474 179 646 -64 1088 -64 
C 1306 -64 1798 -13 2144 306 
L 2144 0 
L 2618 0 
L 2618 2739 
z
" transform="scale(0.015625)"/>
       <path id="CMSS17-6e" d="M 2618 1877 
C 2618 2283 2522 2816 1798 2816 
C 1389 2816 1120 2606 941 2389 
L 941 2758 
L 474 2758 
L 474 0 
L 960 0 
L 960 1559 
C 960 1964 1114 2428 1549 2428 
C 2112 2428 2131 2048 2131 1829 
L 2131 0 
L 2618 0 
L 2618 1877 
z
" transform="scale(0.015625)"/>
       <path id="CMSS17-69" d="M 979 4183 
L 442 4183 
L 442 3648 
L 979 3648 
L 979 4183 
z
M 947 2739 
L 474 2739 
L 474 0 
L 947 0 
L 947 2739 
z
" transform="scale(0.015625)"/>
       <path id="CMSS17-61" d="M 2406 1791 
C 2406 2392 1978 2808 1402 2808 
C 1120 2808 813 2757 461 2553 
L 499 2135 
C 659 2248 934 2432 1395 2432 
C 1722 2432 1920 2180 1920 1782 
L 1920 1536 
C 896 1536 256 1238 256 726 
C 256 461 416 -64 947 -64 
C 1043 -64 1562 -64 1933 217 
L 1933 -19 
L 2406 -19 
L 2406 1791 
z
M 1920 816 
C 1920 701 1920 548 1728 434 
C 1562 325 1350 325 1261 325 
C 941 325 723 511 723 744 
C 723 1211 1722 1211 1920 1211 
L 1920 816 
z
" transform="scale(0.015625)"/>
       <path id="CMSS17-5b" d="M 1613 -1600 
L 1613 -1212 
L 1062 -1212 
L 1062 4352 
L 1613 4352 
L 1613 4741 
L 595 4741 
L 595 -1600 
L 1613 -1600 
z
" transform="scale(0.015625)"/>
       <path id="CMSS17-48" d="M 3674 4416 
L 3136 4416 
L 3136 2501 
L 1101 2501 
L 1101 4416 
L 563 4416 
L 563 0 
L 1101 0 
L 1101 2112 
L 3136 2112 
L 3136 0 
L 3674 0 
L 3674 4416 
z
" transform="scale(0.015625)"/>
       <path id="CMSS17-7a" d="M 2400 2502 
L 2400 2750 
L 250 2750 
L 250 2368 
L 1069 2368 
C 1146 2368 1222 2368 1299 2368 
L 1747 2368 
L 166 261 
L 166 0 
L 2419 0 
L 2419 395 
L 1549 395 
C 1472 395 1395 395 1318 395 
L 826 395 
L 2400 2502 
z
" transform="scale(0.015625)"/>
       <path id="CMSS17-5d" d="M 1146 4741 
L 128 4741 
L 128 4352 
L 678 4352 
L 678 -1212 
L 128 -1212 
L 128 -1600 
L 1146 -1600 
L 1146 4741 
z
" transform="scale(0.015625)"/>
      </defs>
      <use xlink:href="#CMSS17-46" transform="scale(0.996264)"/>
      <use xlink:href="#CMSS17-72" transform="translate(50.687105 0) scale(0.996264)"/>
      <use xlink:href="#CMSS17-65" transform="translate(82.596878 0) scale(0.996264)"/>
      <use xlink:href="#CMSS17-63" transform="translate(124.2357 0) scale(0.996264)"/>
      <use xlink:href="#CMSS17-75" transform="translate(165.874522 0) scale(0.996264)"/>
      <use xlink:href="#CMSS17-65" transform="translate(214.079465 0) scale(0.996264)"/>
      <use xlink:href="#CMSS17-6e" transform="translate(255.718287 0) scale(0.996264)"/>
      <use xlink:href="#CMSS17-63" transform="translate(303.92323 0) scale(0.996264)"/>
      <use xlink:href="#CMSS17-69" transform="translate(345.562052 0) scale(0.996264)"/>
      <use xlink:href="#CMSS17-61" transform="translate(367.742776 0) scale(0.996264)"/>
      <use xlink:href="#CMSS17-5b" transform="translate(443.893809 0) scale(0.996264)"/>
      <use xlink:href="#CMSS17-48" transform="translate(471.079247 0) scale(0.996264)"/>
      <use xlink:href="#CMSS17-7a" transform="translate(537.140767 0) scale(0.996264)"/>
      <use xlink:href="#CMSS17-5d" transform="translate(577.818638 0) scale(0.996264)"/>
     </g>
    </g>
    <g id="text_11">
     <!-- $\times\mathdefault{10^{6}}\mathdefault{}$ -->
     <g transform="translate(425.069118 329.463991) scale(0.11 -0.11)">
      <defs>
       <path id="CMSY10-2" d="M 2490 1785 
L 1210 3059 
C 1133 3136 1120 3148 1069 3148 
C 1005 3148 941 3091 941 3020 
C 941 2976 954 2963 1024 2892 
L 2304 1606 
L 1024 320 
C 954 249 941 236 941 192 
C 941 121 1005 64 1069 64 
C 1120 64 1133 76 1210 153 
L 2483 1427 
L 3808 102 
C 3821 96 3866 64 3904 64 
C 3981 64 4032 121 4032 192 
C 4032 204 4032 230 4013 262 
C 4006 275 2989 1280 2669 1606 
L 3840 2777 
C 3872 2816 3968 2899 4000 2937 
C 4006 2950 4032 2976 4032 3020 
C 4032 3091 3981 3148 3904 3148 
C 3853 3148 3827 3123 3757 3052 
L 2490 1785 
z
" transform="scale(0.015625)"/>
       <path id="CMR17-36" d="M 678 2176 
C 678 3690 1395 4032 1811 4032 
C 1946 4032 2272 4009 2400 3776 
C 2298 3776 2106 3776 2106 3553 
C 2106 3381 2246 3323 2336 3323 
C 2394 3323 2566 3348 2566 3560 
C 2566 3954 2246 4179 1805 4179 
C 1043 4179 243 3390 243 1984 
C 243 253 966 -128 1478 -128 
C 2099 -128 2688 427 2688 1283 
C 2688 2081 2170 2662 1517 2662 
C 1126 2662 838 2407 678 1960 
L 678 2176 
z
M 1478 25 
C 691 25 691 1200 691 1436 
C 691 1896 909 2560 1504 2560 
C 1613 2560 1926 2560 2138 2120 
C 2253 1870 2253 1609 2253 1289 
C 2253 944 2253 690 2118 434 
C 1978 171 1773 25 1478 25 
z
" transform="scale(0.015625)"/>
      </defs>
      <use xlink:href="#CMSY10-2" transform="scale(0.996264)"/>
      <use xlink:href="#CMR17-31" transform="translate(77.487468 0) scale(0.996264)"/>
      <use xlink:href="#CMR17-30" transform="translate(123.177945 0) scale(0.996264)"/>
      <use xlink:href="#CMR17-36" transform="translate(168.868422 36.153639) scale(0.697382)"/>
     </g>
    </g>
   </g>
   <g id="matplotlib.axis_2">
    <g id="ytick_1">
     <g id="line2d_19">
      <path d="M 61.23624 290.652513 
L 448.92 290.652513 
" clip-path="url(#pad3eedb96e)" style="fill: none; stroke: #b0b0b0; stroke-width: 0.8; stroke-linecap: square"/>
     </g>
     <g id="line2d_20">
      <defs>
       <path id="me66089c05f" d="M 0 0 
L -3.5 0 
" style="stroke: #000000; stroke-width: 0.8"/>
      </defs>
      <g>
       <use xlink:href="#me66089c05f" x="61.23624" y="290.652513" style="stroke: #000000; stroke-width: 0.8"/>
      </g>
     </g>
     <g id="text_12">
      <!-- $\mathdefault{42000}$ -->
      <g transform="translate(26.838904 294.457686) scale(0.11 -0.11)">
       <defs>
        <path id="CMR17-34" d="M 2150 4122 
C 2150 4256 2144 4256 2029 4256 
L 128 1254 
L 128 1088 
L 1779 1088 
L 1779 457 
C 1779 224 1766 160 1318 160 
L 1197 160 
L 1197 0 
C 1402 0 1747 0 1965 0 
C 2182 0 2528 0 2733 0 
L 2733 160 
L 2611 160 
C 2163 160 2150 224 2150 457 
L 2150 1088 
L 2803 1088 
L 2803 1254 
L 2150 1254 
L 2150 4122 
z
M 1798 3703 
L 1798 1254 
L 256 1254 
L 1798 3703 
z
" transform="scale(0.015625)"/>
       </defs>
       <use xlink:href="#CMR17-34" transform="scale(0.996264)"/>
       <use xlink:href="#CMR17-32" transform="translate(45.690477 0) scale(0.996264)"/>
       <use xlink:href="#CMR17-30" transform="translate(91.380954 0) scale(0.996264)"/>
       <use xlink:href="#CMR17-30" transform="translate(137.071431 0) scale(0.996264)"/>
       <use xlink:href="#CMR17-30" transform="translate(182.761908 0) scale(0.996264)"/>
      </g>
     </g>
    </g>
    <g id="ytick_2">
     <g id="line2d_21">
      <path d="M 61.23624 254.009014 
L 448.92 254.009014 
" clip-path="url(#pad3eedb96e)" style="fill: none; stroke: #b0b0b0; stroke-width: 0.8; stroke-linecap: square"/>
     </g>
     <g id="line2d_22">
      <g>
       <use xlink:href="#me66089c05f" x="61.23624" y="254.009014" style="stroke: #000000; stroke-width: 0.8"/>
      </g>
     </g>
     <g id="text_13">
      <!-- $\mathdefault{44000}$ -->
      <g transform="translate(26.838904 257.814187) scale(0.11 -0.11)">
       <use xlink:href="#CMR17-34" transform="scale(0.996264)"/>
       <use xlink:href="#CMR17-34" transform="translate(45.690477 0) scale(0.996264)"/>
       <use xlink:href="#CMR17-30" transform="translate(91.380954 0) scale(0.996264)"/>
       <use xlink:href="#CMR17-30" transform="translate(137.071431 0) scale(0.996264)"/>
       <use xlink:href="#CMR17-30" transform="translate(182.761908 0) scale(0.996264)"/>
      </g>
     </g>
    </g>
    <g id="ytick_3">
     <g id="line2d_23">
      <path d="M 61.23624 217.365516 
L 448.92 217.365516 
" clip-path="url(#pad3eedb96e)" style="fill: none; stroke: #b0b0b0; stroke-width: 0.8; stroke-linecap: square"/>
     </g>
     <g id="line2d_24">
      <g>
       <use xlink:href="#me66089c05f" x="61.23624" y="217.365516" style="stroke: #000000; stroke-width: 0.8"/>
      </g>
     </g>
     <g id="text_14">
      <!-- $\mathdefault{46000}$ -->
      <g transform="translate(26.838904 221.170689) scale(0.11 -0.11)">
       <use xlink:href="#CMR17-34" transform="scale(0.996264)"/>
       <use xlink:href="#CMR17-36" transform="translate(45.690477 0) scale(0.996264)"/>
       <use xlink:href="#CMR17-30" transform="translate(91.380954 0) scale(0.996264)"/>
       <use xlink:href="#CMR17-30" transform="translate(137.071431 0) scale(0.996264)"/>
       <use xlink:href="#CMR17-30" transform="translate(182.761908 0) scale(0.996264)"/>
      </g>
     </g>
    </g>
    <g id="ytick_4">
     <g id="line2d_25">
      <path d="M 61.23624 180.722017 
L 448.92 180.722017 
" clip-path="url(#pad3eedb96e)" style="fill: none; stroke: #b0b0b0; stroke-width: 0.8; stroke-linecap: square"/>
     </g>
     <g id="line2d_26">
      <g>
       <use xlink:href="#me66089c05f" x="61.23624" y="180.722017" style="stroke: #000000; stroke-width: 0.8"/>
      </g>
     </g>
     <g id="text_15">
      <!-- $\mathdefault{48000}$ -->
      <g transform="translate(26.838904 184.52719) scale(0.11 -0.11)">
       <defs>
        <path id="CMR17-38" d="M 1741 2264 
C 2144 2467 2554 2773 2554 3263 
C 2554 3841 1990 4179 1472 4179 
C 890 4179 378 3759 378 3180 
C 378 3021 416 2747 666 2505 
C 730 2442 998 2251 1171 2130 
C 883 1983 211 1634 211 934 
C 211 279 838 -128 1459 -128 
C 2144 -128 2720 362 2720 1010 
C 2720 1590 2330 1857 2074 2029 
L 1741 2264 
z
M 902 2822 
C 851 2854 595 3051 595 3351 
C 595 3739 998 4032 1459 4032 
C 1965 4032 2336 3676 2336 3262 
C 2336 2669 1670 2331 1638 2331 
C 1632 2331 1626 2331 1574 2370 
L 902 2822 
z
M 2080 1519 
C 2176 1449 2483 1240 2483 851 
C 2483 381 2010 25 1472 25 
C 890 25 448 438 448 940 
C 448 1443 838 1862 1280 2060 
L 2080 1519 
z
" transform="scale(0.015625)"/>
       </defs>
       <use xlink:href="#CMR17-34" transform="scale(0.996264)"/>
       <use xlink:href="#CMR17-38" transform="translate(45.690477 0) scale(0.996264)"/>
       <use xlink:href="#CMR17-30" transform="translate(91.380954 0) scale(0.996264)"/>
       <use xlink:href="#CMR17-30" transform="translate(137.071431 0) scale(0.996264)"/>
       <use xlink:href="#CMR17-30" transform="translate(182.761908 0) scale(0.996264)"/>
      </g>
     </g>
    </g>
    <g id="ytick_5">
     <g id="line2d_27">
      <path d="M 61.23624 144.078519 
L 448.92 144.078519 
" clip-path="url(#pad3eedb96e)" style="fill: none; stroke: #b0b0b0; stroke-width: 0.8; stroke-linecap: square"/>
     </g>
     <g id="line2d_28">
      <g>
       <use xlink:href="#me66089c05f" x="61.23624" y="144.078519" style="stroke: #000000; stroke-width: 0.8"/>
      </g>
     </g>
     <g id="text_16">
      <!-- $\mathdefault{50000}$ -->
      <g transform="translate(26.838904 147.883692) scale(0.11 -0.11)">
       <use xlink:href="#CMR17-35" transform="scale(0.996264)"/>
       <use xlink:href="#CMR17-30" transform="translate(45.690477 0) scale(0.996264)"/>
       <use xlink:href="#CMR17-30" transform="translate(91.380954 0) scale(0.996264)"/>
       <use xlink:href="#CMR17-30" transform="translate(137.071431 0) scale(0.996264)"/>
       <use xlink:href="#CMR17-30" transform="translate(182.761908 0) scale(0.996264)"/>
      </g>
     </g>
    </g>
    <g id="ytick_6">
     <g id="line2d_29">
      <path d="M 61.23624 107.43502 
L 448.92 107.43502 
" clip-path="url(#pad3eedb96e)" style="fill: none; stroke: #b0b0b0; stroke-width: 0.8; stroke-linecap: square"/>
     </g>
     <g id="line2d_30">
      <g>
       <use xlink:href="#me66089c05f" x="61.23624" y="107.43502" style="stroke: #000000; stroke-width: 0.8"/>
      </g>
     </g>
     <g id="text_17">
      <!-- $\mathdefault{52000}$ -->
      <g transform="translate(26.838904 111.240193) scale(0.11 -0.11)">
       <use xlink:href="#CMR17-35" transform="scale(0.996264)"/>
       <use xlink:href="#CMR17-32" transform="translate(45.690477 0) scale(0.996264)"/>
       <use xlink:href="#CMR17-30" transform="translate(91.380954 0) scale(0.996264)"/>
       <use xlink:href="#CMR17-30" transform="translate(137.071431 0) scale(0.996264)"/>
       <use xlink:href="#CMR17-30" transform="translate(182.761908 0) scale(0.996264)"/>
      </g>
     </g>
    </g>
    <g id="ytick_7">
     <g id="line2d_31">
      <path d="M 61.23624 70.791522 
L 448.92 70.791522 
" clip-path="url(#pad3eedb96e)" style="fill: none; stroke: #b0b0b0; stroke-width: 0.8; stroke-linecap: square"/>
     </g>
     <g id="line2d_32">
      <g>
       <use xlink:href="#me66089c05f" x="61.23624" y="70.791522" style="stroke: #000000; stroke-width: 0.8"/>
      </g>
     </g>
     <g id="text_18">
      <!-- $\mathdefault{54000}$ -->
      <g transform="translate(26.838904 74.596695) scale(0.11 -0.11)">
       <use xlink:href="#CMR17-35" transform="scale(0.996264)"/>
       <use xlink:href="#CMR17-34" transform="translate(45.690477 0) scale(0.996264)"/>
       <use xlink:href="#CMR17-30" transform="translate(91.380954 0) scale(0.996264)"/>
       <use xlink:href="#CMR17-30" transform="translate(137.071431 0) scale(0.996264)"/>
       <use xlink:href="#CMR17-30" transform="translate(182.761908 0) scale(0.996264)"/>
      </g>
     </g>
    </g>
    <g id="ytick_8">
     <g id="line2d_33">
      <path d="M 61.23624 34.148023 
L 448.92 34.148023 
" clip-path="url(#pad3eedb96e)" style="fill: none; stroke: #b0b0b0; stroke-width: 0.8; stroke-linecap: square"/>
     </g>
     <g id="line2d_34">
      <g>
       <use xlink:href="#me66089c05f" x="61.23624" y="34.148023" style="stroke: #000000; stroke-width: 0.8"/>
      </g>
     </g>
     <g id="text_19">
      <!-- $\mathdefault{56000}$ -->
      <g transform="translate(26.838904 37.953196) scale(0.11 -0.11)">
       <use xlink:href="#CMR17-35" transform="scale(0.996264)"/>
       <use xlink:href="#CMR17-36" transform="translate(45.690477 0) scale(0.996264)"/>
       <use xlink:href="#CMR17-30" transform="translate(91.380954 0) scale(0.996264)"/>
       <use xlink:href="#CMR17-30" transform="translate(137.071431 0) scale(0.996264)"/>
       <use xlink:href="#CMR17-30" transform="translate(182.761908 0) scale(0.996264)"/>
      </g>
     </g>
    </g>
    <g id="text_20">
     <!-- Impedancia [$\Omega$] -->
     <g transform="translate(20.099178 199.432483) rotate(-90) scale(0.11 -0.11)">
      <defs>
       <path id="CMSS17-49" d="M 1094 4416 
L 557 4416 
L 557 0 
L 1094 0 
L 1094 4416 
z
" transform="scale(0.015625)"/>
       <path id="CMSS17-6d" d="M 4288 1877 
C 4288 2308 4179 2816 3462 2816 
C 2982 2816 2694 2516 2566 2331 
C 2451 2670 2182 2816 1798 2816 
C 1363 2816 1088 2568 941 2389 
L 941 2758 
L 474 2758 
L 474 0 
L 960 0 
L 960 1559 
C 960 1939 1101 2428 1555 2428 
C 2138 2428 2138 2016 2138 1829 
L 2138 0 
L 2624 0 
L 2624 1559 
C 2624 1939 2765 2428 3219 2428 
C 3802 2428 3802 2016 3802 1829 
L 3802 0 
L 4288 0 
L 4288 1877 
z
" transform="scale(0.015625)"/>
       <path id="CMSS17-70" d="M 966 333 
C 1178 129 1466 -5 1773 -5 
C 2368 -5 2880 603 2880 1412 
C 2880 2159 2496 2816 1946 2816 
C 1626 2816 1242 2702 954 2472 
L 954 2765 
L 480 2765 
L 480 -1216 
L 966 -1216 
L 966 333 
z
M 966 2100 
C 1018 2176 1235 2415 1587 2415 
C 2035 2415 2394 1960 2394 1412 
C 2394 787 1958 384 1530 384 
C 1402 384 1267 415 1139 523 
C 966 674 966 768 966 857 
L 966 2100 
z
" transform="scale(0.015625)"/>
       <path id="CMSS17-64" d="M 2611 4416 
L 2138 4416 
L 2138 2438 
C 1939 2603 1613 2756 1254 2756 
C 672 2756 211 2131 211 1347 
C 211 562 666 -64 1235 -64 
C 1677 -64 1971 172 2125 306 
L 2125 -13 
L 2611 -13 
L 2611 4416 
z
M 2125 836 
C 2125 747 2125 653 1926 482 
C 1798 375 1645 325 1498 325 
C 1152 325 698 576 698 1340 
C 698 2134 1210 2368 1562 2368 
C 1798 2368 1990 2254 2125 2065 
L 2125 836 
z
" transform="scale(0.015625)"/>
       <path id="CMR17-a" d="M 4038 935 
L 3923 935 
C 3866 641 3846 563 3814 461 
C 3782 365 3763 314 3392 314 
L 2874 314 
C 2944 686 3098 961 3366 1391 
C 3699 1935 3974 2377 3974 2910 
C 3974 3775 3155 4480 2138 4480 
C 1094 4480 294 3768 294 2910 
C 294 2377 576 1922 890 1416 
C 1171 961 1325 686 1395 314 
L 877 314 
C 512 314 493 365 461 454 
C 422 557 410 641 346 935 
L 230 935 
L 416 0 
L 1382 0 
C 1517 0 1523 6 1523 102 
C 1523 558 1286 1154 1178 1429 
C 973 1929 781 2416 781 2916 
C 781 3871 1466 4377 2131 4377 
C 2829 4377 3488 3851 3488 2916 
C 3488 2422 3315 1981 3078 1397 
C 2976 1135 2746 551 2746 102 
C 2746 0 2752 0 2886 0 
L 3853 0 
L 4038 935 
z
" transform="scale(0.015625)"/>
      </defs>
      <use xlink:href="#CMSS17-49" transform="scale(0.996264)"/>
      <use xlink:href="#CMSS17-6d" transform="translate(25.783926 0) scale(0.996264)"/>
      <use xlink:href="#CMSS17-70" transform="translate(100.01318 0) scale(0.996264)"/>
      <use xlink:href="#CMSS17-65" transform="translate(150.820562 0) scale(0.996264)"/>
      <use xlink:href="#CMSS17-64" transform="translate(192.459384 0) scale(0.996264)"/>
      <use xlink:href="#CMSS17-61" transform="translate(240.664327 0) scale(0.996264)"/>
      <use xlink:href="#CMSS17-6e" transform="translate(285.586248 0) scale(0.996264)"/>
      <use xlink:href="#CMSS17-63" transform="translate(333.791191 0) scale(0.996264)"/>
      <use xlink:href="#CMSS17-69" transform="translate(375.430013 0) scale(0.996264)"/>
      <use xlink:href="#CMSS17-61" transform="translate(397.610736 0) scale(0.996264)"/>
      <use xlink:href="#CMSS17-5b" transform="translate(473.761769 0) scale(0.996264)"/>
      <use xlink:href="#CMR17-a" transform="translate(500.947208 0) scale(0.996264)"/>
      <use xlink:href="#CMSS17-5d" transform="translate(567.457088 0) scale(0.996264)"/>
     </g>
    </g>
   </g>
   <g id="line2d_35">
    <path d="M 78.858229 289.519515 
L 79.210678 289.519391 
L 79.386902 284.872488 
L 79.651239 284.872448 
L 79.827463 279.899335 
L 80.620472 279.912858 
L 80.796697 277.997973 
L 81.149145 277.997965 
L 81.32537 277.6311 
L 81.76593 277.631131 
L 81.942155 276.416449 
L 82.911388 276.379332 
L 83.087613 276.218577 
L 84.233071 276.128048 
L 84.409295 273.329043 
L 84.849856 273.329085 
L 85.02608 273.442453 
L 92.947362 273.538555 
L 95.590726 273.50471 
L 107.926427 273.403579 
L 222.47222 273.489988 
L 227.758949 273.5393 
L 367.857264 274.146684 
L 370.500629 274.251975 
L 378.430722 274.275841 
L 431.298011 274.678655 
L 431.298011 274.678655 
" clip-path="url(#pad3eedb96e)" style="fill: none; stroke: #1f77b4; stroke-width: 1.5; stroke-linecap: square"/>
   </g>
   <g id="line2d_36">
    <path d="M 78.858229 212.947724 
L 79.210678 212.947895 
L 79.386902 218.341324 
L 79.651239 218.341332 
L 79.827463 215.834926 
L 79.915575 215.834934 
L 80.0918 212.374098 
L 80.972921 212.274533 
L 81.237257 212.209801 
L 82.118379 212.101539 
L 82.735164 211.889841 
L 83.263837 211.865806 
L 83.440061 209.472032 
L 87.660633 209.410911 
L 88.541755 209.160844 
L 111.450913 209.178439 
L 133.47895 209.159442 
L 217.185491 209.329508 
L 301.773153 209.761237 
L 312.346611 209.856734 
L 365.2139 210.236905 
L 431.298011 210.860795 
L 431.298011 210.860795 
" clip-path="url(#pad3eedb96e)" style="fill: none; stroke: #ff7f0e; stroke-width: 1.5; stroke-linecap: square"/>
   </g>
   <g id="line2d_37">
    <path d="M 78.858229 184.738138 
L 79.210678 184.738141 
L 79.386902 169.523572 
L 79.475015 169.523567 
L 79.651239 169.159393 
L 80.003687 169.159387 
L 80.179912 162.187744 
L 80.796697 162.187811 
L 80.972921 163.442393 
L 81.237257 163.442393 
L 81.413482 160.306623 
L 81.76593 160.306661 
L 81.942155 161.031049 
L 82.294603 161.031077 
L 82.470828 159.821668 
L 82.55894 159.821677 
L 82.735164 159.626999 
L 82.9995 159.627024 
L 83.175725 158.997157 
L 83.528173 158.997205 
L 83.704398 158.849786 
L 83.79251 158.849795 
L 83.968734 158.665044 
L 84.673631 158.75485 
L 84.849856 153.115339 
L 85.114192 153.115368 
L 85.290416 153.492002 
L 91.185119 153.459667 
L 92.06624 152.769469 
L 99.115212 152.713975 
L 190.751846 152.719833 
L 203.968669 152.765073 
L 248.905864 152.997231 
L 259.479322 153.059486 
L 291.199695 153.28701 
L 312.346611 153.443348 
L 410.151095 154.381948 
L 431.298011 154.642196 
L 431.298011 154.642196 
" clip-path="url(#pad3eedb96e)" style="fill: none; stroke: #2ca02c; stroke-width: 1.5; stroke-linecap: square"/>
   </g>
   <g id="line2d_38">
    <path d="M 78.858229 113.653155 
L 79.122566 113.65317 
L 79.29879 116.42668 
L 79.386902 116.426688 
L 79.563127 107.321055 
L 79.739351 107.321062 
L 79.915575 105.645822 
L 80.179912 105.645839 
L 80.356136 105.824161 
L 80.620472 105.82418 
L 80.796697 104.537299 
L 81.589706 104.646553 
L 81.76593 103.820637 
L 82.55894 103.773252 
L 82.735164 103.377975 
L 82.823276 103.377991 
L 82.9995 103.176725 
L 83.263837 103.17677 
L 83.440061 102.86726 
L 83.704398 102.867314 
L 83.880622 102.608415 
L 84.233071 102.608488 
L 84.409295 102.418713 
L 84.673631 102.418775 
L 84.849856 102.131587 
L 85.202304 102.131673 
L 85.378528 101.951252 
L 85.730977 101.951346 
L 85.907201 101.69881 
L 86.171538 101.698885 
L 86.347762 101.54405 
L 86.612099 101.54413 
L 86.788323 101.34006 
L 86.964547 101.340115 
L 87.140771 101.198068 
L 87.660633 101.095495 
L 88.541755 101.008116 
L 89.422876 100.733735 
L 91.185119 100.590535 
L 92.06624 100.261794 
L 92.947362 100.153952 
L 93.828483 96.254876 
L 103.52082 96.180226 
L 169.604931 96.13789 
L 182.821753 96.214011 
L 190.751846 96.22839 
L 198.68194 96.303936 
L 203.968669 96.282028 
L 209.255398 96.329019 
L 312.346611 97.076264 
L 386.360815 97.919186 
L 431.298011 98.556117 
L 431.298011 98.556117 
" clip-path="url(#pad3eedb96e)" style="fill: none; stroke: #d62728; stroke-width: 1.5; stroke-linecap: square"/>
   </g>
   <g id="line2d_39">
    <path d="M 78.858229 76.593678 
L 79.122566 76.593484 
L 79.29879 51.155805 
L 79.386902 51.155794 
L 79.563127 50.335903 
L 79.915575 50.335909 
L 80.0918 44.380601 
L 80.53236 44.380662 
L 80.708585 44.155873 
L 80.972921 44.155906 
L 81.149145 44.002003 
L 81.413482 44.002043 
L 81.589706 43.884712 
L 82.735164 43.78223 
L 82.9995 43.73252 
L 83.440061 43.728428 
L 83.616285 42.225696 
L 84.321183 42.215822 
L 84.497407 42.101831 
L 87.405108 42.009712 
L 87.660633 41.982147 
L 92.06624 41.920793 
L 92.947362 39.698563 
L 109.68867 39.8736 
L 111.450913 39.793082 
L 115.85652 39.791062 
L 116.737642 39.541246 
L 120.262128 39.52681 
L 233.045678 39.941569 
L 251.549229 40.146666 
L 254.192593 39.886187 
L 277.982873 40.226549 
L 320.276704 40.738859 
L 330.850162 40.891694 
L 362.570535 41.342757 
L 367.857264 41.43995 
L 415.437824 42.185313 
L 423.367918 42.35172 
L 431.298011 42.459388 
L 431.298011 42.459388 
" clip-path="url(#pad3eedb96e)" style="fill: none; stroke: #9467bd; stroke-width: 1.5; stroke-linecap: square"/>
   </g>
   <g id="patch_3">
    <path d="M 61.23624 302.019855 
L 61.23624 27.012395 
" style="fill: none; stroke: #000000; stroke-width: 0.8; stroke-linejoin: miter; stroke-linecap: square"/>
   </g>
   <g id="patch_4">
    <path d="M 448.92 302.019855 
L 448.92 27.012395 
" style="fill: none; stroke: #000000; stroke-width: 0.8; stroke-linejoin: miter; stroke-linecap: square"/>
   </g>
   <g id="patch_5">
    <path d="M 61.23624 302.019855 
L 448.92 302.019855 
" style="fill: none; stroke: #000000; stroke-width: 0.8; stroke-linejoin: miter; stroke-linecap: square"/>
   </g>
   <g id="patch_6">
    <path d="M 61.23624 27.012395 
L 448.92 27.012395 
" style="fill: none; stroke: #000000; stroke-width: 0.8; stroke-linejoin: miter; stroke-linecap: square"/>
   </g>
   <g id="text_21">
    <!-- Comparación de diferentes concentraciones PPy -->
    <g transform="translate(126.513621 21.012395) scale(0.132 -0.132)">
     <defs>
      <path id="CMSS17-43" d="M 3501 714 
C 3072 427 2874 344 2355 344 
C 1459 344 934 1303 934 2179 
C 934 3112 1472 4032 2381 4032 
C 2790 4032 3059 3918 3386 3715 
L 3475 4217 
C 3168 4370 2778 4440 2387 4440 
C 1158 4440 397 3316 397 2179 
C 397 927 1299 -64 2323 -64 
C 2874 -64 3066 -19 3539 280 
L 3501 714 
z
" transform="scale(0.015625)"/>
      <path id="CMSS17-6f" d="M 2829 1356 
C 2829 2176 2221 2816 1504 2816 
C 768 2816 173 2157 173 1356 
C 173 544 787 -64 1498 -64 
C 2227 -64 2829 563 2829 1356 
z
M 1504 337 
C 1050 337 659 709 659 1408 
C 659 2151 1114 2427 1498 2427 
C 1914 2427 2342 2126 2342 1408 
C 2342 683 1926 337 1504 337 
z
" transform="scale(0.015625)"/>
      <path id="CMSS17-13" d="M 2502 4448 
L 2016 4448 
L 1222 3328 
L 1613 3328 
L 2502 4448 
z
" transform="scale(0.015625)"/>
      <path id="CMSS17-66" d="M 1075 2368 
L 1722 2368 
L 1722 2737 
L 1062 2737 
L 1062 3559 
C 1062 4014 1408 4092 1606 4092 
C 1670 4092 1850 4092 2080 4009 
L 2080 4429 
C 1933 4461 1754 4480 1613 4480 
C 1018 4480 602 3993 602 3359 
L 602 2737 
L 160 2737 
L 160 2368 
L 602 2368 
L 602 0 
L 1075 0 
L 1075 2368 
z
" transform="scale(0.015625)"/>
      <path id="CMSS17-74" d="M 1069 2368 
L 1901 2368 
L 1901 2737 
L 1069 2737 
L 1069 3520 
L 614 3520 
L 614 2737 
L 109 2737 
L 109 2368 
L 602 2368 
L 602 749 
C 602 384 685 -64 1107 -64 
C 1427 -64 1722 25 2003 172 
L 1901 548 
C 1747 414 1562 337 1363 337 
C 1082 337 1069 696 1069 856 
L 1069 2368 
z
" transform="scale(0.015625)"/>
      <path id="CMSS17-73" d="M 2061 2627 
C 1683 2807 1389 2807 1197 2807 
C 742 2807 198 2648 198 2003 
C 198 1359 902 1218 1094 1179 
C 1389 1122 1715 1058 1715 740 
C 1715 337 1254 337 1171 337 
C 915 337 563 407 243 638 
L 166 210 
C 531 0 883 -64 1178 -64 
C 1965 -64 2163 416 2163 781 
C 2163 1094 1984 1305 1862 1401 
C 1651 1568 1574 1587 1050 1696 
C 960 1709 646 1779 646 2066 
C 646 2432 1050 2432 1139 2432 
C 1555 2432 1811 2303 1984 2208 
L 2061 2627 
z
" transform="scale(0.015625)"/>
      <path id="CMSS17-50" d="M 2106 1856 
C 2874 1856 3501 2453 3501 3158 
C 3501 3850 2899 4453 2067 4453 
L 570 4453 
L 570 0 
L 1107 0 
L 1107 1856 
L 2106 1856 
z
M 1926 4096 
C 2669 4096 2995 3627 2995 3157 
C 2995 2720 2694 2226 1926 2226 
L 1094 2226 
L 1094 4096 
L 1926 4096 
z
" transform="scale(0.015625)"/>
      <path id="CMSS17-79" d="M 2675 2752 
L 2176 2752 
C 1632 1294 1446 702 1434 383 
L 1427 383 
C 1408 696 1126 1460 902 2007 
L 602 2752 
L 83 2752 
L 1216 13 
C 1146 -178 1043 -465 1011 -529 
C 870 -885 774 -885 672 -885 
C 646 -885 442 -885 211 -809 
L 250 -1229 
C 410 -1261 570 -1280 685 -1280 
C 845 -1280 1165 -1280 1459 -497 
L 2675 2752 
z
" transform="scale(0.015625)"/>
     </defs>
     <use xlink:href="#CMSS17-43" transform="scale(0.996264)"/>
     <use xlink:href="#CMSS17-6f" transform="translate(59.855772 0) scale(0.996264)"/>
     <use xlink:href="#CMSS17-6d" transform="translate(106.699395 0) scale(0.996264)"/>
     <use xlink:href="#CMSS17-70" transform="translate(180.92865 0) scale(0.996264)"/>
     <use xlink:href="#CMSS17-61" transform="translate(229.133593 0) scale(0.996264)"/>
     <use xlink:href="#CMSS17-72" transform="translate(271.453059 0) scale(0.996264)"/>
     <use xlink:href="#CMSS17-61" transform="translate(303.362832 0) scale(0.996264)"/>
     <use xlink:href="#CMSS17-63" transform="translate(348.284752 0) scale(0.996264)"/>
     <use xlink:href="#CMSS17-69" transform="translate(389.923575 0) scale(0.996264)"/>
     <use xlink:href="#CMSS17-13" transform="translate(412.104298 0) scale(0.996264)"/>
     <use xlink:href="#CMSS17-6f" transform="translate(412.104298 0) scale(0.996264)"/>
     <use xlink:href="#CMSS17-6e" transform="translate(458.947921 0) scale(0.996264)"/>
     <use xlink:href="#CMSS17-64" transform="translate(538.381977 0) scale(0.996264)"/>
     <use xlink:href="#CMSS17-65" transform="translate(586.58692 0) scale(0.996264)"/>
     <use xlink:href="#CMSS17-64" transform="translate(659.454855 0) scale(0.996264)"/>
     <use xlink:href="#CMSS17-69" transform="translate(707.659798 0) scale(0.996264)"/>
     <use xlink:href="#CMSS17-66" transform="translate(729.840521 0) scale(0.996264)"/>
     <use xlink:href="#CMSS17-65" transform="translate(758.46718 0) scale(0.996264)"/>
     <use xlink:href="#CMSS17-72" transform="translate(800.106002 0) scale(0.996264)"/>
     <use xlink:href="#CMSS17-65" transform="translate(832.015775 0) scale(0.996264)"/>
     <use xlink:href="#CMSS17-6e" transform="translate(873.654597 0) scale(0.996264)"/>
     <use xlink:href="#CMSS17-74" transform="translate(921.85954 0) scale(0.996264)"/>
     <use xlink:href="#CMSS17-65" transform="translate(955.691106 0) scale(0.996264)"/>
     <use xlink:href="#CMSS17-73" transform="translate(997.329929 0) scale(0.996264)"/>
     <use xlink:href="#CMSS17-63" transform="translate(1064.472583 0) scale(0.996264)"/>
     <use xlink:href="#CMSS17-6f" transform="translate(1106.111405 0) scale(0.996264)"/>
     <use xlink:href="#CMSS17-6e" transform="translate(1152.955029 0) scale(0.996264)"/>
     <use xlink:href="#CMSS17-63" transform="translate(1201.159972 0) scale(0.996264)"/>
     <use xlink:href="#CMSS17-65" transform="translate(1242.798794 0) scale(0.996264)"/>
     <use xlink:href="#CMSS17-6e" transform="translate(1284.437616 0) scale(0.996264)"/>
     <use xlink:href="#CMSS17-74" transform="translate(1332.642559 0) scale(0.996264)"/>
     <use xlink:href="#CMSS17-72" transform="translate(1366.474126 0) scale(0.996264)"/>
     <use xlink:href="#CMSS17-61" transform="translate(1398.383899 0) scale(0.996264)"/>
     <use xlink:href="#CMSS17-63" transform="translate(1443.305819 0) scale(0.996264)"/>
     <use xlink:href="#CMSS17-69" transform="translate(1484.944641 0) scale(0.996264)"/>
     <use xlink:href="#CMSS17-6f" transform="translate(1507.125364 0) scale(0.996264)"/>
     <use xlink:href="#CMSS17-6e" transform="translate(1553.968988 0) scale(0.996264)"/>
     <use xlink:href="#CMSS17-65" transform="translate(1602.173931 0) scale(0.996264)"/>
     <use xlink:href="#CMSS17-73" transform="translate(1643.812753 0) scale(0.996264)"/>
     <use xlink:href="#CMSS17-50" transform="translate(1710.955408 0) scale(0.996264)"/>
     <use xlink:href="#CMSS17-50" transform="translate(1770.690994 0) scale(0.996264)"/>
     <use xlink:href="#CMSS17-79" transform="translate(1830.42658 0) scale(0.996264)"/>
    </g>
   </g>
   <g id="legend_1">
    <g id="patch_7">
     <path d="M 371.377601 296.519855 
L 441.22 296.519855 
Q 443.42 296.519855 443.42 294.319855 
L 443.42 218.765381 
Q 443.42 216.565381 441.22 216.565381 
L 371.377601 216.565381 
Q 369.177601 216.565381 369.177601 218.765381 
L 369.177601 294.319855 
Q 369.177601 296.519855 371.377601 296.519855 
z
" style="fill: #ffffff; opacity: 0.8; stroke: #cccccc; stroke-linejoin: miter"/>
    </g>
    <g id="line2d_40">
     <path d="M 373.577601 224.815381 
L 384.577601 224.815381 
L 395.577601 224.815381 
" style="fill: none; stroke: #1f77b4; stroke-width: 1.5; stroke-linecap: square"/>
    </g>
    <g id="text_22">
     <!-- en aire -->
     <g transform="translate(404.377601 228.665381) scale(0.11 -0.11)">
      <use xlink:href="#CMSS17-65" transform="scale(0.996264)"/>
      <use xlink:href="#CMSS17-6e" transform="translate(41.638822 0) scale(0.996264)"/>
      <use xlink:href="#CMSS17-61" transform="translate(121.072878 0) scale(0.996264)"/>
      <use xlink:href="#CMSS17-69" transform="translate(165.994799 0) scale(0.996264)"/>
      <use xlink:href="#CMSS17-72" transform="translate(188.175522 0) scale(0.996264)"/>
      <use xlink:href="#CMSS17-65" transform="translate(220.085294 0) scale(0.996264)"/>
     </g>
    </g>
    <g id="line2d_41">
     <path d="M 373.577601 240.146276 
L 384.577601 240.146276 
L 395.577601 240.146276 
" style="fill: none; stroke: #ff7f0e; stroke-width: 1.5; stroke-linecap: square"/>
    </g>
    <g id="text_23">
     <!-- 20 ppm -->
     <g transform="translate(404.377601 243.996276) scale(0.11 -0.11)">
      <defs>
       <path id="CMSS17-32" d="M 1651 1357 
C 1830 1541 2099 1764 2285 1987 
C 2464 2204 2701 2511 2701 2957 
C 2701 3657 2227 4288 1421 4288 
C 787 4288 422 3893 250 3274 
L 499 2929 
C 640 3510 838 3880 1338 3880 
C 1888 3880 2195 3433 2195 2942 
C 2195 2355 1747 1901 1408 1563 
C 1030 1187 659 804 301 408 
L 301 0 
L 2701 0 
L 2701 433 
L 1613 433 
C 1536 433 1459 433 1382 433 
L 742 433 
L 742 439 
L 1651 1357 
z
" transform="scale(0.015625)"/>
       <path id="CMSS17-30" d="M 2758 2044 
C 2758 2405 2752 3077 2490 3596 
C 2227 4096 1805 4229 1504 4229 
C 1069 4229 698 3975 506 3570 
C 301 3146 243 2709 243 2044 
C 243 1589 262 1031 493 543 
C 755 5 1197 -128 1498 -128 
C 1894 -128 2278 81 2496 518 
C 2720 974 2758 1474 2758 2044 
z
M 1498 261 
C 1011 261 864 811 819 995 
C 742 1310 730 1614 730 2114 
C 730 2506 730 2948 851 3297 
C 998 3701 1254 3840 1498 3840 
C 1971 3840 2125 3372 2176 3208 
C 2272 2873 2272 2481 2272 2114 
C 2272 1526 2272 261 1498 261 
z
" transform="scale(0.015625)"/>
      </defs>
      <use xlink:href="#CMSS17-32" transform="scale(0.996264)"/>
      <use xlink:href="#CMSS17-30" transform="translate(46.843624 0) scale(0.996264)"/>
      <use xlink:href="#CMSS17-70" transform="translate(124.91636 0) scale(0.996264)"/>
      <use xlink:href="#CMSS17-70" transform="translate(173.121303 0) scale(0.996264)"/>
      <use xlink:href="#CMSS17-6d" transform="translate(221.326246 0) scale(0.996264)"/>
     </g>
    </g>
    <g id="line2d_42">
     <path d="M 373.577601 255.477171 
L 384.577601 255.477171 
L 395.577601 255.477171 
" style="fill: none; stroke: #2ca02c; stroke-width: 1.5; stroke-linecap: square"/>
    </g>
    <g id="text_24">
     <!-- 40 ppm -->
     <g transform="translate(404.377601 259.327171) scale(0.11 -0.11)">
      <defs>
       <path id="CMSS17-34" d="M 2253 1088 
L 2835 1088 
L 2835 1477 
L 2253 1477 
L 2253 4192 
L 1690 4192 
L 166 1477 
L 166 1088 
L 1747 1088 
L 1747 0 
L 2253 0 
L 2253 1088 
z
M 659 1477 
C 1030 2127 1766 3439 1766 3885 
L 1766 1477 
L 659 1477 
z
" transform="scale(0.015625)"/>
      </defs>
      <use xlink:href="#CMSS17-34" transform="scale(0.996264)"/>
      <use xlink:href="#CMSS17-30" transform="translate(46.843624 0) scale(0.996264)"/>
      <use xlink:href="#CMSS17-70" transform="translate(124.91636 0) scale(0.996264)"/>
      <use xlink:href="#CMSS17-70" transform="translate(173.121303 0) scale(0.996264)"/>
      <use xlink:href="#CMSS17-6d" transform="translate(221.326246 0) scale(0.996264)"/>
     </g>
    </g>
    <g id="line2d_43">
     <path d="M 373.577601 270.808065 
L 384.577601 270.808065 
L 395.577601 270.808065 
" style="fill: none; stroke: #d62728; stroke-width: 1.5; stroke-linecap: square"/>
    </g>
    <g id="text_25">
     <!-- 60 ppm -->
     <g transform="translate(404.377601 274.658065) scale(0.11 -0.11)">
      <defs>
       <path id="CMSS17-36" d="M 2496 4101 
C 2227 4210 2035 4229 1856 4229 
C 1024 4229 250 3368 250 2006 
C 250 265 986 -128 1510 -128 
C 1798 -128 2086 -39 2362 280 
C 2643 617 2752 898 2752 1389 
C 2752 2179 2362 2880 1779 2880 
C 1357 2880 992 2657 768 2376 
C 832 3258 1254 3840 1862 3840 
C 2029 3840 2246 3816 2496 3710 
L 2496 4101 
z
M 774 1369 
C 774 1420 774 1452 781 1548 
C 781 2045 1069 2491 1536 2491 
C 1837 2491 1990 2332 2106 2135 
C 2240 1886 2246 1650 2246 1388 
C 2246 1140 2246 891 2099 637 
C 1978 439 1818 267 1510 267 
C 902 267 800 1114 774 1369 
z
" transform="scale(0.015625)"/>
      </defs>
      <use xlink:href="#CMSS17-36" transform="scale(0.996264)"/>
      <use xlink:href="#CMSS17-30" transform="translate(46.843624 0) scale(0.996264)"/>
      <use xlink:href="#CMSS17-70" transform="translate(124.91636 0) scale(0.996264)"/>
      <use xlink:href="#CMSS17-70" transform="translate(173.121303 0) scale(0.996264)"/>
      <use xlink:href="#CMSS17-6d" transform="translate(221.326246 0) scale(0.996264)"/>
     </g>
    </g>
    <g id="line2d_44">
     <path d="M 373.577601 286.13896 
L 384.577601 286.13896 
L 395.577601 286.13896 
" style="fill: none; stroke: #9467bd; stroke-width: 1.5; stroke-linecap: square"/>
    </g>
    <g id="text_26">
     <!-- 80 ppm -->
     <g transform="translate(404.377601 289.98896) scale(0.11 -0.11)">
      <defs>
       <path id="CMSS17-38" d="M 1933 2222 
C 2419 2380 2669 2760 2669 3134 
C 2669 3722 2157 4229 1504 4229 
C 826 4229 333 3708 333 3144 
C 333 2780 576 2403 1069 2241 
C 442 1997 250 1512 250 1149 
C 250 446 819 -128 1498 -128 
C 2202 -128 2752 455 2752 1138 
C 2752 1557 2502 2000 1933 2222 
z
M 1504 2432 
C 1075 2432 787 2712 787 3136 
C 787 3566 1075 3840 1504 3840 
C 1901 3840 2214 3591 2214 3136 
C 2214 2687 1907 2432 1504 2432 
z
M 1504 267 
C 1139 267 749 517 749 1156 
C 749 1813 1184 2043 1498 2043 
C 1843 2043 2253 1800 2253 1156 
C 2253 491 1830 267 1504 267 
z
" transform="scale(0.015625)"/>
      </defs>
      <use xlink:href="#CMSS17-38" transform="scale(0.996264)"/>
      <use xlink:href="#CMSS17-30" transform="translate(46.843624 0) scale(0.996264)"/>
      <use xlink:href="#CMSS17-70" transform="translate(124.91636 0) scale(0.996264)"/>
      <use xlink:href="#CMSS17-70" transform="translate(173.121303 0) scale(0.996264)"/>
      <use xlink:href="#CMSS17-6d" transform="translate(221.326246 0) scale(0.996264)"/>
     </g>
    </g>
   </g>
  </g>
  <g id="axes_2">
   <g id="patch_8">
    <path d="M 115.2 259.2 
L 253.44 259.2 
L 253.44 155.52 
L 115.2 155.52 
z
" style="fill: #ffffff"/>
   </g>
   <g id="matplotlib.axis_3">
    <g id="xtick_10">
     <g id="line2d_45">
      <path d="M 121.356694 259.2 
L 121.356694 155.52 
" clip-path="url(#pa86c21f4fb)" style="fill: none; stroke: #b0b0b0; stroke-width: 0.8; stroke-linecap: square"/>
     </g>
     <g id="line2d_46">
      <g>
       <use xlink:href="#m89c4e7b0e3" x="121.356694" y="259.2" style="stroke: #000000; stroke-width: 0.8"/>
      </g>
     </g>
     <g id="text_27">
      <!-- $\mathdefault{0}$ -->
      <g transform="translate(118.616961 273.810347) scale(0.11 -0.11)">
       <use xlink:href="#CMR17-30" transform="scale(0.996264)"/>
      </g>
     </g>
    </g>
    <g id="xtick_11">
     <g id="line2d_47">
      <path d="M 172.133554 259.2 
L 172.133554 155.52 
" clip-path="url(#pa86c21f4fb)" style="fill: none; stroke: #b0b0b0; stroke-width: 0.8; stroke-linecap: square"/>
     </g>
     <g id="line2d_48">
      <g>
       <use xlink:href="#m89c4e7b0e3" x="172.133554" y="259.2" style="stroke: #000000; stroke-width: 0.8"/>
      </g>
     </g>
     <g id="text_28">
      <!-- $\mathdefault{20000}$ -->
      <g transform="translate(158.434886 273.810347) scale(0.11 -0.11)">
       <use xlink:href="#CMR17-32" transform="scale(0.996264)"/>
       <use xlink:href="#CMR17-30" transform="translate(45.690477 0) scale(0.996264)"/>
       <use xlink:href="#CMR17-30" transform="translate(91.380954 0) scale(0.996264)"/>
       <use xlink:href="#CMR17-30" transform="translate(137.071431 0) scale(0.996264)"/>
       <use xlink:href="#CMR17-30" transform="translate(182.761908 0) scale(0.996264)"/>
      </g>
     </g>
    </g>
    <g id="xtick_12">
     <g id="line2d_49">
      <path d="M 222.910413 259.2 
L 222.910413 155.52 
" clip-path="url(#pa86c21f4fb)" style="fill: none; stroke: #b0b0b0; stroke-width: 0.8; stroke-linecap: square"/>
     </g>
     <g id="line2d_50">
      <g>
       <use xlink:href="#m89c4e7b0e3" x="222.910413" y="259.2" style="stroke: #000000; stroke-width: 0.8"/>
      </g>
     </g>
     <g id="text_29">
      <!-- $\mathdefault{40000}$ -->
      <g transform="translate(209.211745 273.810347) scale(0.11 -0.11)">
       <use xlink:href="#CMR17-34" transform="scale(0.996264)"/>
       <use xlink:href="#CMR17-30" transform="translate(45.690477 0) scale(0.996264)"/>
       <use xlink:href="#CMR17-30" transform="translate(91.380954 0) scale(0.996264)"/>
       <use xlink:href="#CMR17-30" transform="translate(137.071431 0) scale(0.996264)"/>
       <use xlink:href="#CMR17-30" transform="translate(182.761908 0) scale(0.996264)"/>
      </g>
     </g>
    </g>
    <g id="text_30">
     <!-- Frecuencia [Hz] -->
     <g transform="translate(148.878519 288.160419) scale(0.11 -0.11)">
      <use xlink:href="#CMSS17-46" transform="scale(0.996264)"/>
      <use xlink:href="#CMSS17-72" transform="translate(50.687105 0) scale(0.996264)"/>
      <use xlink:href="#CMSS17-65" transform="translate(82.596878 0) scale(0.996264)"/>
      <use xlink:href="#CMSS17-63" transform="translate(124.2357 0) scale(0.996264)"/>
      <use xlink:href="#CMSS17-75" transform="translate(165.874522 0) scale(0.996264)"/>
      <use xlink:href="#CMSS17-65" transform="translate(214.079465 0) scale(0.996264)"/>
      <use xlink:href="#CMSS17-6e" transform="translate(255.718287 0) scale(0.996264)"/>
      <use xlink:href="#CMSS17-63" transform="translate(303.92323 0) scale(0.996264)"/>
      <use xlink:href="#CMSS17-69" transform="translate(345.562052 0) scale(0.996264)"/>
      <use xlink:href="#CMSS17-61" transform="translate(367.742776 0) scale(0.996264)"/>
      <use xlink:href="#CMSS17-5b" transform="translate(443.893809 0) scale(0.996264)"/>
      <use xlink:href="#CMSS17-48" transform="translate(471.079247 0) scale(0.996264)"/>
      <use xlink:href="#CMSS17-7a" transform="translate(537.140767 0) scale(0.996264)"/>
      <use xlink:href="#CMSS17-5d" transform="translate(577.818638 0) scale(0.996264)"/>
     </g>
    </g>
   </g>
   <g id="matplotlib.axis_4">
    <g id="ytick_9">
     <g id="line2d_51">
      <path d="M 115.2 233.989628 
L 253.44 233.989628 
" clip-path="url(#pa86c21f4fb)" style="fill: none; stroke: #b0b0b0; stroke-width: 0.8; stroke-linecap: square"/>
     </g>
     <g id="line2d_52">
      <defs>
       <path id="m0edb42d579" d="M 0 0 
L 3.5 0 
" style="stroke: #000000; stroke-width: 0.8"/>
      </defs>
      <g>
       <use xlink:href="#m0edb42d579" x="253.44" y="233.989628" style="stroke: #000000; stroke-width: 0.8"/>
      </g>
     </g>
     <g id="text_31">
      <!-- $\mathdefault{45000}$ -->
      <g transform="translate(260.44 237.794801) scale(0.11 -0.11)">
       <use xlink:href="#CMR17-34" transform="scale(0.996264)"/>
       <use xlink:href="#CMR17-35" transform="translate(45.690477 0) scale(0.996264)"/>
       <use xlink:href="#CMR17-30" transform="translate(91.380954 0) scale(0.996264)"/>
       <use xlink:href="#CMR17-30" transform="translate(137.071431 0) scale(0.996264)"/>
       <use xlink:href="#CMR17-30" transform="translate(182.761908 0) scale(0.996264)"/>
      </g>
     </g>
    </g>
    <g id="ytick_10">
     <g id="line2d_53">
      <path d="M 115.2 199.10787 
L 253.44 199.10787 
" clip-path="url(#pa86c21f4fb)" style="fill: none; stroke: #b0b0b0; stroke-width: 0.8; stroke-linecap: square"/>
     </g>
     <g id="line2d_54">
      <g>
       <use xlink:href="#m0edb42d579" x="253.44" y="199.10787" style="stroke: #000000; stroke-width: 0.8"/>
      </g>
     </g>
     <g id="text_32">
      <!-- $\mathdefault{50000}$ -->
      <g transform="translate(260.44 202.913044) scale(0.11 -0.11)">
       <use xlink:href="#CMR17-35" transform="scale(0.996264)"/>
       <use xlink:href="#CMR17-30" transform="translate(45.690477 0) scale(0.996264)"/>
       <use xlink:href="#CMR17-30" transform="translate(91.380954 0) scale(0.996264)"/>
       <use xlink:href="#CMR17-30" transform="translate(137.071431 0) scale(0.996264)"/>
       <use xlink:href="#CMR17-30" transform="translate(182.761908 0) scale(0.996264)"/>
      </g>
     </g>
    </g>
    <g id="ytick_11">
     <g id="line2d_55">
      <path d="M 115.2 164.226112 
L 253.44 164.226112 
" clip-path="url(#pa86c21f4fb)" style="fill: none; stroke: #b0b0b0; stroke-width: 0.8; stroke-linecap: square"/>
     </g>
     <g id="line2d_56">
      <g>
       <use xlink:href="#m0edb42d579" x="253.44" y="164.226112" style="stroke: #000000; stroke-width: 0.8"/>
      </g>
     </g>
     <g id="text_33">
      <!-- $\mathdefault{55000}$ -->
      <g transform="translate(260.44 168.031286) scale(0.11 -0.11)">
       <use xlink:href="#CMR17-35" transform="scale(0.996264)"/>
       <use xlink:href="#CMR17-35" transform="translate(45.690477 0) scale(0.996264)"/>
       <use xlink:href="#CMR17-30" transform="translate(91.380954 0) scale(0.996264)"/>
       <use xlink:href="#CMR17-30" transform="translate(137.071431 0) scale(0.996264)"/>
       <use xlink:href="#CMR17-30" transform="translate(182.761908 0) scale(0.996264)"/>
      </g>
     </g>
    </g>
    <g id="text_34">
     <!-- Impedancia [$\Omega$] -->
     <g transform="translate(300.056514 242.276358) rotate(-90) scale(0.11 -0.11)">
      <use xlink:href="#CMSS17-49" transform="scale(0.996264)"/>
      <use xlink:href="#CMSS17-6d" transform="translate(25.783926 0) scale(0.996264)"/>
      <use xlink:href="#CMSS17-70" transform="translate(100.01318 0) scale(0.996264)"/>
      <use xlink:href="#CMSS17-65" transform="translate(150.820562 0) scale(0.996264)"/>
      <use xlink:href="#CMSS17-64" transform="translate(192.459384 0) scale(0.996264)"/>
      <use xlink:href="#CMSS17-61" transform="translate(240.664327 0) scale(0.996264)"/>
      <use xlink:href="#CMSS17-6e" transform="translate(285.586248 0) scale(0.996264)"/>
      <use xlink:href="#CMSS17-63" transform="translate(333.791191 0) scale(0.996264)"/>
      <use xlink:href="#CMSS17-69" transform="translate(375.430013 0) scale(0.996264)"/>
      <use xlink:href="#CMSS17-61" transform="translate(397.610736 0) scale(0.996264)"/>
      <use xlink:href="#CMSS17-5b" transform="translate(473.761769 0) scale(0.996264)"/>
      <use xlink:href="#CMR17-a" transform="translate(500.947208 0) scale(0.996264)"/>
      <use xlink:href="#CMSS17-5d" transform="translate(567.457088 0) scale(0.996264)"/>
     </g>
    </g>
   </g>
   <g id="line2d_57">
    <path d="M 121.483636 254.487273 
L 122.753058 254.487261 
L 124.022479 254.487249 
L 125.291901 254.487237 
L 126.561322 254.487225 
L 127.830744 252.717835 
L 129.100165 252.717829 
L 130.369587 252.717824 
L 131.639008 252.717819 
L 132.90843 252.717814 
L 134.177851 250.82421 
L 135.447273 250.824208 
L 136.716694 250.824205 
L 137.986116 250.824203 
L 139.255537 250.8242 
L 140.524959 250.829348 
L 141.79438 250.82935 
L 143.063802 250.829352 
L 144.333223 250.829353 
L 145.602645 250.829355 
L 146.872066 250.829357 
L 148.141488 250.100229 
L 149.410909 250.100228 
L 150.680331 250.100227 
L 151.949752 250.100227 
L 153.219174 250.100226 
L 154.488595 250.100225 
L 155.758017 249.960532 
L 157.027438 249.960534 
L 158.29686 249.960537 
L 159.566281 249.960539 
L 160.835702 249.960541 
L 162.105124 249.960544 
L 163.374545 249.960546 
L 164.643967 249.498033 
L 165.913388 249.498033 
L 167.18281 249.498034 
L 168.452231 249.498034 
L 169.721653 249.483881 
L 170.991074 249.483883 
L 172.260496 249.483886 
L 173.529917 249.483888 
L 174.799339 249.48389 
L 176.06876 249.483893 
L 177.338182 249.483895 
L 178.607603 249.483897 
L 179.877025 249.4839 
L 181.146446 249.422687 
L 182.415868 249.422689 
L 183.685289 249.422691 
L 184.954711 249.422693 
L 186.224132 249.422696 
L 187.493554 249.422698 
L 188.762975 249.4227 
L 190.032397 249.422702 
L 191.301818 249.388204 
L 192.57124 249.388206 
L 193.840661 249.388209 
L 195.110083 249.388211 
L 196.379504 249.388214 
L 197.648926 249.388216 
L 198.918347 249.388219 
L 200.187769 248.322442 
L 201.45719 248.322445 
L 202.726612 248.322448 
L 203.996033 248.322451 
L 205.265455 248.322454 
L 206.534876 248.322458 
L 207.804298 248.322461 
L 209.073719 248.365624 
L 210.34314 248.365628 
L 211.612562 248.365631 
L 212.881983 248.365635 
L 214.151405 248.365638 
L 215.420826 248.365642 
L 216.690248 248.365646 
L 217.959669 248.36565 
L 219.229091 248.365653 
L 220.498512 248.365657 
L 221.767934 248.373766 
L 223.037355 248.37377 
L 224.306777 248.373774 
L 225.576198 248.373778 
L 226.84562 248.373782 
L 228.115041 248.373786 
L 229.384463 248.37379 
L 230.653884 248.373795 
L 231.923306 248.373799 
L 233.192727 248.373803 
L 234.462149 248.380579 
L 235.73157 248.380583 
L 237.000992 248.380588 
L 238.270413 248.380592 
L 239.539835 248.380597 
L 240.809256 248.380601 
L 242.078678 248.382924 
L 243.348099 248.382928 
L 244.617521 248.382933 
L 245.886942 248.382938 
L 247.156364 248.382943 
" clip-path="url(#pa86c21f4fb)" style="fill: none; stroke: #1f77b4; stroke-width: 1.5; stroke-linecap: square"/>
   </g>
   <g id="line2d_58">
    <path d="M 121.483636 225.331119 
L 122.753058 225.331135 
L 124.022479 225.331151 
L 125.291901 225.331168 
L 126.561322 225.331184 
L 127.830744 227.384833 
L 129.100165 227.384834 
L 130.369587 227.384835 
L 131.639008 227.384836 
L 132.90843 227.384837 
L 134.177851 226.430473 
L 135.447273 226.430476 
L 136.716694 226.430479 
L 137.986116 225.112698 
L 139.255537 225.1127 
L 140.524959 225.112702 
L 141.79438 225.112705 
L 143.063802 225.112707 
L 144.333223 225.112709 
L 145.602645 225.112712 
L 146.872066 225.112714 
L 148.141488 225.074783 
L 149.410909 225.074785 
L 150.680331 225.074787 
L 151.949752 225.074789 
L 153.219174 225.050136 
L 154.488595 225.050139 
L 155.758017 225.050141 
L 157.027438 225.050143 
L 158.29686 225.050146 
L 159.566281 225.050148 
L 160.835702 225.050151 
L 162.105124 225.008904 
L 163.374545 225.008907 
L 164.643967 225.008909 
L 165.913388 225.008912 
L 167.18281 225.008915 
L 168.452231 225.008918 
L 169.721653 224.99157 
L 170.991074 224.991573 
L 172.260496 224.991576 
L 173.529917 224.928299 
L 174.799339 224.928303 
L 176.06876 224.928306 
L 177.338182 224.92831 
L 178.607603 224.928314 
L 179.877025 224.928317 
L 181.146446 224.919147 
L 182.415868 224.919151 
L 183.685289 224.919154 
L 184.954711 224.919158 
L 186.224132 224.007679 
L 187.493554 224.007684 
L 188.762975 224.007688 
L 190.032397 224.007693 
L 191.301818 224.007698 
L 192.57124 224.007702 
L 193.840661 223.998847 
L 195.110083 223.998852 
L 196.379504 223.998857 
L 197.648926 223.998862 
L 198.918347 223.998867 
L 200.187769 223.998872 
L 201.45719 223.998877 
L 202.726612 223.998882 
L 203.996033 223.993032 
L 205.265455 223.993037 
L 206.534876 223.993042 
L 207.804298 223.993048 
L 209.073719 223.993053 
L 210.34314 223.993332 
L 211.612562 223.993338 
L 212.881983 223.993343 
L 214.151405 223.993349 
L 215.420826 223.993355 
L 216.690248 223.99336 
L 217.959669 223.989022 
L 219.229091 223.989028 
L 220.498512 223.989034 
L 221.767934 223.98904 
L 223.037355 223.989046 
L 224.306777 223.989052 
L 225.576198 223.988608 
L 226.84562 223.988614 
L 228.115041 223.98862 
L 229.384463 223.988627 
L 230.653884 223.988633 
L 231.923306 223.98864 
L 233.192727 223.988646 
L 234.462149 223.985335 
L 235.73157 223.985342 
L 237.000992 223.985349 
L 238.270413 223.985356 
L 239.539835 223.985363 
L 240.809256 223.98537 
L 242.078678 223.984375 
L 243.348099 223.984382 
L 244.617521 223.98439 
L 245.886942 223.984397 
L 247.156364 223.984404 
" clip-path="url(#pa86c21f4fb)" style="fill: none; stroke: #ff7f0e; stroke-width: 1.5; stroke-linecap: square"/>
   </g>
   <g id="line2d_59">
    <path d="M 121.483636 214.589787 
L 122.753058 214.589787 
L 124.022479 214.589787 
L 125.291901 214.589788 
L 126.561322 214.589788 
L 127.830744 208.796556 
L 129.100165 208.796554 
L 130.369587 208.796552 
L 131.639008 208.657887 
L 132.90843 208.657886 
L 134.177851 208.657886 
L 135.447273 208.657885 
L 136.716694 208.657884 
L 137.986116 208.657884 
L 139.255537 206.003296 
L 140.524959 206.003299 
L 141.79438 206.003303 
L 143.063802 206.003306 
L 144.333223 206.00331 
L 145.602645 206.003313 
L 146.872066 206.003317 
L 148.141488 206.003321 
L 149.410909 206.003325 
L 150.680331 206.481031 
L 151.949752 206.481031 
L 153.219174 206.481031 
L 154.488595 206.481031 
L 155.758017 206.481031 
L 157.027438 205.287024 
L 158.29686 205.287027 
L 159.566281 205.28703 
L 160.835702 205.287034 
L 162.105124 205.287038 
L 163.374545 205.287041 
L 164.643967 205.562863 
L 165.913388 205.562866 
L 167.18281 205.562869 
L 168.452231 205.562871 
L 169.721653 205.562874 
L 170.991074 205.562877 
L 172.260496 205.102368 
L 173.529917 205.102371 
L 174.799339 205.102375 
L 176.06876 205.028244 
L 177.338182 205.028247 
L 178.607603 205.02825 
L 179.877025 205.028254 
L 181.146446 205.028257 
L 182.415868 204.788419 
L 183.685289 204.788423 
L 184.954711 204.788428 
L 186.224132 204.788432 
L 187.493554 204.788437 
L 188.762975 204.788441 
L 190.032397 204.732306 
L 191.301818 204.732309 
L 192.57124 204.732312 
L 193.840661 204.66196 
L 195.110083 204.661965 
L 196.379504 204.66197 
L 197.648926 204.661975 
L 198.918347 204.66198 
L 200.187769 204.69614 
L 201.45719 204.696145 
L 202.726612 204.69615 
L 203.996033 204.696155 
L 205.265455 204.69616 
L 206.534876 202.548807 
L 207.804298 202.54881 
L 209.073719 202.548814 
L 210.34314 202.548817 
L 211.612562 202.548821 
L 212.881983 202.692226 
L 214.151405 202.692232 
L 215.420826 202.692237 
L 216.690248 202.692243 
L 217.959669 202.692248 
L 219.229091 202.692254 
L 220.498512 202.69226 
L 221.767934 202.690882 
L 223.037355 202.690887 
L 224.306777 202.690893 
L 225.576198 202.690899 
L 226.84562 202.690905 
L 228.115041 202.690911 
L 229.384463 202.685385 
L 230.653884 202.685391 
L 231.923306 202.685397 
L 233.192727 202.685404 
L 234.462149 202.68541 
L 235.73157 202.685417 
L 237.000992 202.685423 
L 238.270413 202.687171 
L 239.539835 202.687178 
L 240.809256 202.687185 
L 242.078678 202.687192 
L 243.348099 202.687198 
L 244.617521 202.687205 
L 245.886942 202.687212 
L 247.156364 202.682524 
" clip-path="url(#pa86c21f4fb)" style="fill: none; stroke: #2ca02c; stroke-width: 1.5; stroke-linecap: square"/>
   </g>
   <g id="line2d_60">
    <path d="M 121.483636 187.522839 
L 122.753058 187.522841 
L 124.022479 187.522843 
L 125.291901 187.522845 
L 126.561322 188.578908 
L 127.830744 188.578911 
L 129.100165 188.578914 
L 130.369587 185.111771 
L 131.639008 185.111773 
L 132.90843 185.111774 
L 134.177851 185.111775 
L 135.447273 184.473894 
L 136.716694 184.473896 
L 137.986116 184.473898 
L 139.255537 184.4739 
L 140.524959 184.473903 
L 141.79438 184.5418 
L 143.063802 184.541802 
L 144.333223 184.541805 
L 145.602645 184.541807 
L 146.872066 184.541809 
L 148.141488 184.051802 
L 149.410909 184.051805 
L 150.680331 184.051808 
L 151.949752 184.051811 
L 153.219174 184.051814 
L 154.488595 184.051818 
L 155.758017 184.051821 
L 157.027438 184.093396 
L 158.29686 184.093399 
L 159.566281 184.093402 
L 160.835702 184.093406 
L 162.105124 183.778918 
L 163.374545 183.778922 
L 164.643967 183.778927 
L 165.913388 183.778932 
L 167.18281 183.778938 
L 168.452231 183.778943 
L 169.721653 183.760861 
L 170.991074 183.760866 
L 172.260496 183.760871 
L 173.529917 183.760875 
L 174.799339 183.76088 
L 176.06876 183.610365 
L 177.338182 183.610371 
L 178.607603 183.610377 
L 179.877025 183.533735 
L 181.146446 183.533741 
L 182.415868 183.533747 
L 183.685289 183.533752 
L 184.954711 183.533758 
L 186.224132 183.4159 
L 187.493554 183.415906 
L 188.762975 183.415913 
L 190.032397 183.41592 
L 191.301818 183.415927 
L 192.57124 183.317339 
L 193.840661 183.317346 
L 195.110083 183.317353 
L 196.379504 183.31736 
L 197.648926 183.317367 
L 198.918347 183.317374 
L 200.187769 183.245106 
L 201.45719 183.245114 
L 202.726612 183.245121 
L 203.996033 183.245129 
L 205.265455 183.245137 
L 206.534876 183.135777 
L 207.804298 183.135785 
L 209.073719 183.135793 
L 210.34314 183.135801 
L 211.612562 183.135809 
L 212.881983 183.135818 
L 214.151405 183.06711 
L 215.420826 183.067119 
L 216.690248 183.067128 
L 217.959669 183.067137 
L 219.229091 183.067146 
L 220.498512 183.067155 
L 221.767934 182.970988 
L 223.037355 182.970997 
L 224.306777 182.971006 
L 225.576198 182.971016 
L 226.84562 182.971025 
L 228.115041 182.912059 
L 229.384463 182.912069 
L 230.653884 182.912079 
L 231.923306 182.912089 
L 233.192727 182.9121 
L 234.462149 182.834386 
L 235.73157 182.834396 
L 237.000992 182.834406 
L 238.270413 182.834417 
L 239.539835 182.780319 
L 240.809256 182.78033 
L 242.078678 182.780341 
L 243.348099 182.780352 
L 244.617521 182.780363 
L 245.886942 182.741252 
L 247.156364 182.741263 
" clip-path="url(#pa86c21f4fb)" style="fill: none; stroke: #d62728; stroke-width: 1.5; stroke-linecap: square"/>
   </g>
   <g id="line2d_61">
    <path d="M 121.483636 173.411744 
L 122.753058 173.41172 
L 124.022479 173.411695 
L 125.291901 173.411671 
L 126.561322 163.725799 
L 127.830744 163.725794 
L 129.100165 163.72579 
L 130.369587 163.413601 
L 131.639008 163.413601 
L 132.90843 163.413602 
L 134.177851 163.413602 
L 135.447273 163.413603 
L 136.716694 163.413604 
L 137.986116 161.146003 
L 139.255537 161.146008 
L 140.524959 161.146012 
L 141.79438 161.146017 
L 143.063802 161.146021 
L 144.333223 161.146026 
L 145.602645 161.146031 
L 146.872066 161.060435 
L 148.141488 161.060439 
L 149.410909 161.060443 
L 150.680331 161.060447 
L 151.949752 161.060451 
L 153.219174 161.001845 
L 154.488595 161.00185 
L 155.758017 161.001854 
L 157.027438 161.001859 
L 158.29686 161.001865 
L 159.566281 160.957184 
L 160.835702 160.957189 
L 162.105124 160.957194 
L 163.374545 160.957199 
L 164.643967 160.957204 
L 165.913388 160.957209 
L 167.18281 160.937376 
L 168.452231 160.937382 
L 169.721653 160.937388 
L 170.991074 160.918137 
L 172.260496 160.918142 
L 173.529917 160.918148 
L 174.799339 160.918154 
L 176.06876 160.918161 
L 177.338182 160.918167 
L 178.607603 160.899226 
L 179.877025 160.899232 
L 181.146446 160.899239 
L 182.415868 160.899246 
L 183.685289 160.899253 
L 184.954711 160.897666 
L 186.224132 160.897674 
L 187.493554 160.897681 
L 188.762975 160.325479 
L 190.032397 160.325487 
L 191.301818 160.325495 
L 192.57124 160.325503 
L 193.840661 160.321686 
L 195.110083 160.321694 
L 196.379504 160.321702 
L 197.648926 160.321711 
L 198.918347 160.321719 
L 200.187769 160.321727 
L 201.45719 160.278315 
L 202.726612 160.278323 
L 203.996033 160.278332 
L 205.265455 160.27834 
L 206.534876 160.278349 
L 207.804298 160.278358 
L 209.073719 160.270882 
L 210.34314 160.270891 
L 211.612562 160.2709 
L 212.881983 160.270909 
L 214.151405 160.270919 
L 215.420826 160.270928 
L 216.690248 160.261882 
L 217.959669 160.261892 
L 219.229091 160.261902 
L 220.498512 160.261912 
L 221.767934 160.261922 
L 223.037355 160.261933 
L 224.306777 160.255394 
L 225.576198 160.255404 
L 226.84562 160.255415 
L 228.115041 160.255426 
L 229.384463 160.255437 
L 230.653884 160.255448 
L 231.923306 160.246483 
L 233.192727 160.246494 
L 234.462149 160.246505 
L 235.73157 160.246517 
L 237.000992 160.246528 
L 238.270413 160.243187 
L 239.539835 160.243199 
L 240.809256 160.243211 
L 242.078678 160.243223 
L 243.348099 160.243235 
L 244.617521 160.243247 
L 245.886942 160.232727 
L 247.156364 160.23274 
" clip-path="url(#pa86c21f4fb)" style="fill: none; stroke: #9467bd; stroke-width: 1.5; stroke-linecap: square"/>
   </g>
   <g id="patch_9">
    <path d="M 115.2 259.2 
L 115.2 155.52 
" style="fill: none; stroke: #000000; stroke-width: 0.8; stroke-linejoin: miter; stroke-linecap: square"/>
   </g>
   <g id="patch_10">
    <path d="M 253.44 259.2 
L 253.44 155.52 
" style="fill: none; stroke: #000000; stroke-width: 0.8; stroke-linejoin: miter; stroke-linecap: square"/>
   </g>
   <g id="patch_11">
    <path d="M 115.2 259.2 
L 253.44 259.2 
" style="fill: none; stroke: #000000; stroke-width: 0.8; stroke-linejoin: miter; stroke-linecap: square"/>
   </g>
   <g id="patch_12">
    <path d="M 115.2 155.52 
L 253.44 155.52 
" style="fill: none; stroke: #000000; stroke-width: 0.8; stroke-linejoin: miter; stroke-linecap: square"/>
   </g>
  </g>
 </g>
 <defs>
  <clipPath id="pad3eedb96e">
   <rect x="61.23624" y="27.012395" width="387.68376" height="275.00746"/>
  </clipPath>
  <clipPath id="pa86c21f4fb">
   <rect x="115.2" y="155.52" width="138.24" height="103.68"/>
  </clipPath>
 </defs>
</svg>
